{
  "query": {
    "bool": {
      "must": [
        {
          "term": {
            "jobId": "007cef1d-4109-428a-b380-ba16dda9ff31"
          }
        }
      ]
    }
  },
  "script": {
    "inline": "ctx._source.jobAccountManagerName='shane grant';ctx._source.jobAccountManagerEmail='shane.grant@avanceservices.us';ctx._source.jobClientRecruiterName='angie''s boomchickapop';ctx._source.jobClientRecruiterEmail='mlutz@boomchickapop.com';ctx._source.jobPostedByRecruiterName='shane grant';ctx._source.jobPostedByRecruiterEmail='shane.grant@avanceservices.us';ctx._source.jobTags=['MIS-United States','MIS23792','MISJOB'];ctx._source.jobPostingDate='2017-08-10T10:14:41.853Z';ctx._source['jobPostedByTeam']=teamObject",
    "params": {
      "teamObject": {
        "id": "0fe532ff-a368-4871-86c2-c962c2da5248",
        "ownerId": "ed99bdb1-9eb5-4fb7-8710-87ed05c51c40",
        "name": "Avance US Master",
        "ownerEmail": "wscrm@avanceunlimited.com",
        "type": "Provider",
        "jobPostedNotificationTo": null,
        "jobShareNotificationTo": null,
        "jobClosedNotificationTo": null,
        "jobInsightUpdateNotificationTo": null,
        "candidateSubmissionNotificationTo": null,
        "candidateStatusUpdateNotificationTo": null
      }
    }
  }
}