{
  "query": {
    "bool": {
      "must": [
        {
          "term": {
            "jobId": "ee638c5c-ae9c-4fb9-9a87-01857df4599f"
          }
        }
      ]
    }
  },
  "script": {
    "inline": "ctx._source.jobAccountManagerName='malik khan';ctx._source.jobAccountManagerEmail='malik.khan1@avanceservices.us';ctx._source.jobClientRecruiterName='ashish mukherjee';ctx._source.jobClientRecruiterEmail='ashish_mukherjee@syntelinc.com';ctx._source.jobPostedByRecruiterName='priority';ctx._source.jobPostedByRecruiterEmail='priority@wisestep-inc.com';ctx._source.jobSkills=['Moody''s','Apex Classes','Salesforce'];ctx._source.jobPostingDate='2017-10-23T15:53:26.166Z';ctx._source.jobSalaryCurrency='USD';ctx._source.jobMinimumSalary='115000';ctx._source.jobMaximumSalary=120000;ctx._source.jobSalaryTimeSpan='PerAnnum';",
    "params": {
      "teamObject": null
    }
  }
}