{
  "query": {
    "bool": {
      "must": [
        {
          "term": {
            "jobId": "06a28a92-0080-4576-b6b5-b4757f15028d"
          }
        }
      ]
    }
  },
  "script": {
    "inline": "ctx._source.jobPostedByRecruiterEmail='mark.morris@wisestepinc.com';ctx._source.jobTags=['Mining','LACT''s','electrical products','switchgears','skids','Electrical Control and Power Distribution turnkey solutions'];ctx._source.jobSkills=['Electrical Control','mining','Power Distribution turnkey solutions'];ctx._source.jobPostingDate='2018-01-30T14:05:55.245Z';ctx._source.jobSalaryCurrency='USD';ctx._source.jobMinimumSalary='90000';ctx._source.jobMaximumSalary=110000;ctx._source.jobSalaryTimeSpan='PerAnnum';ctx._source['jobPostedByTeam']=teamObject",
    "params": {
      "teamObject": {
        "id": "a704db6b-07b4-46c4-803a-a91743f2ef13",
        "ownerId": "ed99bdb1-9eb5-4fb7-8710-87ed05c51c40",
        "name": "Team Elite",
        "ownerEmail": "wscrm@avanceunlimited.com",
        "type": "provider",
        "jobPostedNotificationTo": null,
        "jobShareNotificationTo": null,
        "jobClosedNotificationTo": null,
        "jobInsightUpdateNotificationTo": null,
        "candidateSubmissionNotificationTo": null,
        "candidateStatusUpdateNotificationTo": null
      }
    }
  }
}