{
  "query": {
    "bool": {
      "must": [
        {
          "term": {
            "jobId": "479b0228-ac79-4bca-86ee-0e589f0c65d5"
          }
        }
      ]
    }
  },
  "script": {
    "inline": "ctx._source.jobAccountManagerName='chitra';ctx._source.jobAccountManagerEmail='chitra@avanceservices.com';ctx._source.jobClientRecruiterName='others';ctx._source.jobClientRecruiterEmail='others@others.com';ctx._source.jobPostedByRecruiterName='amit kumar';ctx._source.jobPostedByRecruiterEmail='amit.kumar@avanceservices.com';ctx._source.jobTags=['MIS-United Kingdom','MISJOB','MIS650','Chicago\\WC- Atlanta\\Nashville\\NJ\\Michigan\\Boston United Kingdom'];ctx._source.jobPostingDate='2013-01-25T00:00:00Z';ctx._source['jobPostedByTeam']=teamObject",
    "params": {
      "teamObject": {
        "id": "983ffb5c-4b75-4bd8-ae5d-f1b857b7aaeb",
        "ownerId": "ed99bdb1-9eb5-4fb7-8710-87ed05c51c40",
        "name": "Avance Europe Master",
        "ownerEmail": "wscrm@avanceunlimited.com",
        "type": "Provider",
        "jobPostedNotificationTo": null,
        "jobShareNotificationTo": null,
        "jobClosedNotificationTo": null,
        "jobInsightUpdateNotificationTo": null,
        "candidateSubmissionNotificationTo": null,
        "candidateStatusUpdateNotificationTo": null
      }
    }
  }
}