{
  "query": {
    "bool": {
      "must": [
        {
          "term": {
            "jobId": "184aa121-e450-4987-aa07-4dd694c99877"
          }
        }
      ]
    }
  },
  "script": {
    "inline": "ctx._source.jobAccountManagerName='zain uddin';ctx._source.jobAccountManagerEmail='zain.uddin@wisestepinc.com';ctx._source.jobClientRecruiterName='karla moffat (trejo''s tacos)';ctx._source.jobClientRecruiterEmail='karlamoffat@gmail.com';ctx._source.jobPostedByRecruiterName='zain uddin';ctx._source.jobPostedByRecruiterEmail='zain.uddin@wisestepinc.com';ctx._source.jobSkills=['general manager','tacos','Restaurants'];ctx._source.jobPostingDate='2018-04-11T18:00:34.488Z';ctx._source.jobSalaryCurrency='USD';ctx._source.jobMinimumSalary='80000';ctx._source.jobMaximumSalary=85000;ctx._source.jobSalaryTimeSpan='PerAnnum';ctx._source['jobPostedByTeam']=teamObject",
    "params": {
      "teamObject": {
        "id": "a704db6b-07b4-46c4-803a-a91743f2ef13",
        "ownerId": "ed99bdb1-9eb5-4fb7-8710-87ed05c51c40",
        "name": "Team Elite",
        "ownerEmail": "wscrm@avanceunlimited.com",
        "type": "provider",
        "jobPostedNotificationTo": null,
        "jobShareNotificationTo": null,
        "jobClosedNotificationTo": null,
        "jobInsightUpdateNotificationTo": null,
        "candidateSubmissionNotificationTo": null,
        "candidateStatusUpdateNotificationTo": null
      }
    }
  }
}